<?xml version="1.0" encoding="utf-8"?>
<svg viewBox="302.203 79.07 361.169 366.279" xmlns="http://www.w3.org/2000/svg" preserveAspectRatio="none">
  <defs>
    <linearGradient gradientUnits="userSpaceOnUse" x1="482.787" y1="79.07" x2="482.787" y2="445.349" id="gradient-0" gradientTransform="matrix(0.717682, -0.696371, 0.985714, 1.015874, -121.873786, 335.524913)">
      <stop offset="0" style="stop-color: rgb(230, 255, 250);"/>
      <stop offset="1" style="stop-color: rgb(235, 244, 255);"/>
    </linearGradient>
  </defs>
  <path style="stroke: rgb(0, 0, 0); stroke-width: 0px; fill: url(#gradient-0);" d="M 302.326 79.07 C 385.465 81.975 394.187 111.046 464.535 110.465 C 534.883 109.884 599.419 76.163 663.372 88.372 L 663.372 400.581 C 663.372 400.581 593.024 429.07 541.279 429.652 C 489.534 430.234 443.023 409.884 302.326 445.349 C 302.326 445.349 302.049 157.175 302.326 79.07 Z"/>
</svg>